{
"images": ["bakeOff.png"],
"frames": [

    [805, 1786, 84, 34],
    [709, 1872, 84, 34],
    [710, 1836, 84, 34],
    [623, 1874, 84, 34],
    [622, 1838, 84, 34],
    [866, 1750, 84, 34],
    [866, 1714, 84, 34],
    [878, 1612, 84, 34],
    [878, 1576, 84, 34],
    [878, 1540, 84, 34],
    [878, 1504, 84, 34],
    [878, 1468, 84, 34],
    [878, 1432, 84, 34],
    [878, 1396, 84, 34],
    [878, 1360, 84, 34],
    [2, 644, 960, 640],
    [641, 1636, 144, 45],
    [641, 1589, 144, 45],
    [478, 1651, 144, 45],
    [379, 1866, 144, 45],
    [749, 1362, 87, 84],
    [683, 1456, 78, 76],
    [683, 1534, 85, 53],
    [527, 1729, 85, 61],
    [770, 1520, 82, 64],
    [763, 1448, 84, 70],
    [150, 1855, 78, 53],
    [527, 1792, 86, 61],
    [787, 1586, 89, 62],
    [525, 1886, 96, 29],
    [710, 1805, 93, 29],
    [614, 1745, 94, 29],
    [710, 1774, 93, 29],
    [672, 1714, 96, 29],
    [770, 1743, 94, 29],
    [615, 1807, 93, 29],
    [770, 1712, 94, 29],
    [615, 1776, 93, 29],
    [787, 1681, 94, 29],
    [672, 1683, 96, 29],
    [527, 1855, 93, 29],
    [576, 1698, 94, 29],
    [787, 1650, 93, 29],
    [478, 1698, 96, 29],
    [231, 1286, 302, 283],
    [379, 1641, 97, 93],
    [2, 2, 960, 640],
    [231, 1571, 260, 68],
    [535, 1286, 308, 74],
    [2, 1286, 227, 567],
    [493, 1586, 146, 63],
    [379, 1801, 146, 63],
    [379, 1736, 146, 63],
    [231, 1836, 146, 63],
    [535, 1521, 146, 63],
    [231, 1771, 146, 63],
    [231, 1706, 146, 63],
    [535, 1456, 146, 63],
    [231, 1641, 146, 63],
    [2, 1855, 146, 63],
    [535, 1362, 212, 92],
    [845, 1286, 109, 72],
    [710, 1745, 57, 20],
    [891, 1786, 63, 20],
    [883, 1670, 62, 20],
    [883, 1692, 63, 20],
    [882, 1648, 63, 20],
    [295, 1901, 63, 20],
    [230, 1901, 63, 20]
],
"animations": {

        "prize_10":[0],
        "prize_1000":[1],
        "prize_10x2":[2],
        "prize_2":[3],
        "prize_20":[4],
        "prize_2000":[5],
        "prize_20x2":[6],
        "prize_2x2":[7],
        "prize_4":[8],
        "prize_40":[9],
        "prize_40x2":[10],
        "prize_5":[11],
        "prize_5x2":[12],
        "prize_80":[13],
        "prize_80000":[14],
        "background":[15],
        "button_finish":[16],
        "button_finish_over":[17],
        "button_start":[18],
        "button_start_over":[19],
        "cake1":[20],
        "cake2":[21],
        "cake3":[22],
        "cake4":[23],
        "cake5":[24],
        "cake6":[25],
        "cake7":[26],
        "cake8":[27],
        "cake9":[28],
        "card1":[29],
        "card2":[30],
        "card3":[31],
        "card4":[32],
        "card5":[33],
        "card_end1":[34],
        "card_end2":[35],
        "card_end3":[36],
        "card_end4":[37],
        "card_end5":[38],
        "card_end_win1":[39],
        "card_end_win2":[40],
        "card_end_win3":[41],
        "card_end_win4":[42],
        "card_end_win5":[43],
        "character":[44],
        "cloche":[45],
        "endgame_blackout":[46],
        "endgame_congratulations":[47],
        "endgame_lose":[48],
        "endgame_spotlights":[49],
        "endwin_10":[50],
        "endwin_1000":[51],
        "endwin_2":[52],
        "endwin_20":[53],
        "endwin_2000":[54],
        "endwin_4":[55],
        "endwin_40":[56],
        "endwin_5":[57],
        "endwin_80":[58],
        "endwin_80000":[59],
        "logo":[60],
        "plate":[61],
        "prize1":[62],
        "prize2":[63],
        "prize3":[64],
        "prize4":[65],
        "prize5":[66],
        "prize6":[67],
        "prize7":[68]
},
"texturepacker": [
        "SmartUpdateHash: $TexturePacker:SmartUpdate:51421396a7bf426180301e8ad1851304:ce8dccd9af87b9529f2f1d7cbe26e34b:7c5e4eea4d98574922f9d09d5440ba59$",
        "Created with TexturePacker (http://www.texturepacker.com) for EaselJS"
]
}
