{
    "animations": {
        "wink": {"frames": [1, 2, 3, 4, 5, 6, 7, 8]},
        "shrug": {"frames": [45, 46, 47, 48, 49, 50, 51, 52, 53, 54, 55, 56, 57, 58, 59, 54, 55, 56, 57, 58, 59, 54, 54, 54, 54, 54, 54, 54, 54, 60, 61, 62, 63, 64, 65, 66, 67, 68, 69, 70, 71, 72, 73]},
        "all": {"frames": [0]},
        "smile": {"frames": [9, 10, 11, 12, 13, 14, 14, 14, 14, 14, 15, 16, 17, 18, 19, 14, 15, 16, 17, 18, 19, 14, 14, 14, 14, 14, 14, 14, 14, 13, 20, 11, 21, 22]},
        "kiss": {"frames": [24, 25, 26, 27, 28, 29, 30, 31, 32, 33, 34, 34, 35, 36, 37, 38, 39, 40, 41, 42, 43]}
    },
    "images": ["character2_0.png", "character2_1.png"],
    "frames": [
        [1, 1177, 288, 292, 0, 139, 165],
        [581, 1, 288, 292, 0, 139, 165],
        [871, 1, 288, 292, 0, 139, 165],
        [1161, 1, 288, 292, 0, 139, 165],
        [1451, 1, 288, 292, 0, 139, 165],
        [1741, 1, 288, 292, 0, 139, 165],
        [1, 295, 288, 292, 0, 139, 165],
        [291, 295, 288, 292, 0, 139, 165],
        [581, 295, 288, 292, 0, 139, 165],
        [871, 295, 288, 292, 0, 139, 165],
        [1161, 295, 288, 292, 0, 139, 165],
        [1451, 295, 288, 292, 0, 139, 165],
        [1741, 295, 288, 292, 0, 139, 165],
        [1, 589, 288, 292, 0, 139, 165],
        [291, 589, 288, 292, 0, 139, 165],
        [581, 589, 288, 292, 0, 139, 165],
        [871, 589, 288, 292, 0, 139, 165],
        [1161, 589, 288, 292, 0, 139, 165],
        [1451, 589, 288, 292, 0, 139, 165],
        [1741, 589, 288, 292, 0, 139, 165],
        [1, 883, 288, 292, 0, 139, 165],
        [291, 883, 288, 292, 0, 139, 165],
        [581, 883, 288, 292, 0, 139, 165],
        [1741, 883, 288, 292, 0, 139, 165],
        [1161, 883, 288, 292, 0, 139, 165],
        [1451, 883, 288, 292, 0, 139, 165],
        [871, 883, 288, 292, 0, 139, 165],
        [581, 1471, 288, 292, 0, 139, 165],
        [291, 1471, 288, 292, 0, 139, 165],
        [581, 1, 288, 292, 1, 139, 165],
        [291, 1, 288, 292, 1, 139, 165],
        [1, 1, 288, 292, 1, 139, 165],
        [1741, 1471, 288, 292, 0, 139, 165],
        [1451, 1471, 288, 292, 0, 139, 165],
        [1161, 1471, 288, 292, 0, 139, 165],
        [871, 1471, 288, 292, 0, 139, 165],
        [291, 1, 288, 292, 0, 139, 165],
        [1, 1, 288, 292, 0, 139, 165],
        [1, 1471, 288, 292, 0, 139, 165],
        [1741, 1177, 288, 292, 0, 139, 165],
        [1451, 1177, 288, 292, 0, 139, 165],
        [1161, 1177, 288, 292, 0, 139, 165],
        [871, 1177, 288, 292, 0, 139, 165],
        [581, 1177, 288, 292, 0, 139, 165],
        [291, 1177, 288, 292, 0, 139, 165],
        [871, 1, 289, 291, 1, 140, 165],
        [1162, 1, 294, 291, 1, 142, 165],
        [616, 295, 308, 286, 1, 150, 165],
        [1, 295, 303, 286, 1, 161, 165],
        [1318, 1143, 324, 278, 1, 173, 165],
        [1, 863, 335, 278, 1, 175, 165],
        [1231, 295, 328, 278, 1, 168, 165],
        [1561, 295, 322, 278, 1, 160, 165],
        [325, 583, 311, 278, 1, 154, 165],
        [1, 583, 322, 278, 1, 160, 165],
        [1610, 583, 322, 278, 1, 160, 165],
        [638, 583, 322, 278, 1, 160, 165],
        [962, 583, 322, 278, 1, 160, 165],
        [1286, 583, 322, 278, 1, 160, 165],
        [1644, 1143, 322, 278, 1, 160, 165],
        [1, 1423, 322, 278, 1, 160, 165],
        [338, 863, 322, 278, 1, 160, 165],
        [662, 863, 322, 278, 1, 160, 165],
        [986, 863, 322, 278, 1, 160, 165],
        [1310, 863, 322, 278, 1, 160, 165],
        [1634, 863, 311, 278, 1, 154, 165],
        [1, 1143, 322, 278, 1, 160, 165],
        [325, 1143, 328, 278, 1, 168, 165],
        [655, 1143, 335, 278, 1, 175, 165],
        [992, 1143, 324, 278, 1, 173, 165],
        [926, 295, 303, 286, 1, 161, 165],
        [306, 295, 308, 286, 1, 150, 165],
        [1458, 1, 294, 291, 1, 142, 165],
        [1754, 1, 289, 291, 1, 140, 165]
    ]
}
