{
    "animations": {"all": {"frames": [21]}, "drop": {"frames": [0, 1, 2, 3, 4, 5, 6, 7, 8, 9, 10, 11, 12, 13, 14, 15, 16, 17, 18, 19, 20, 21]}},
    "frames": [
        [1444, 2, 123, 201, 0, 72, 117],
        [1315, 2, 125, 203, 0, 73, 118],
        [913, 2, 137, 223, 0, 83, 121],
        [773, 2, 136, 223, 0, 83, 121],
        [615, 2, 154, 235, 0, 94, 122],
        [459, 2, 152, 237, 0, 94, 124],
        [308, 2, 147, 247, 0, 93, 125],
        [156, 2, 148, 255, 0, 94, 126],
        [2, 2, 150, 264, 0, 95, 128],
        [1054, 2, 81, 221, 0, 98, 81],
        [1139, 2, 81, 215, 0, 106, 71],
        [1224, 2, 87, 205, 0, 118, 59],
        [1571, 2, 101, 192, 0, 136, 45],
        [1676, 2, 122, 176, 0, 159, 29],
        [1901, 2, 143, 158, 0, 183, 12],
        [1802, 2, 95, 160, 0, 136, -9],
        [391, 270, 113, 150, 0, 133, -18],
        [141, 270, 100, 155, 0, 147, -16],
        [2, 270, 135, 158, 0, 195, -42],
        [245, 270, 142, 154, 0, 268, -57],
        [508, 270, 112, 110, 0, 277, -89],
        [624, 270, 77, 73, 0, 314, -107]
    ],
    "images": ["MoneyTree.png"]
}
